{
  "date": "1st November 2020",
  "location": "Canford Heath",
  "month": "November",
  "region": "Dorset",
  "tags": [
    "1st November",
    "November",
    "2020",
    "Canford Heath",
    "Dorset",
    "Fungus",
    "Toadstool"
  ],
  "title": "Toadstool, Canford Heath",
  "url": "https://photos.philbooth.me/1604231295000-canford-heath-dorset.jpg",
  "url_672": "https://photos.philbooth.me/1604231295000-canford-heath-dorset-672.jpg"
}
