{
  "date": "27th February 2021",
  "location": "Lymington Sea Wall",
  "month": "February",
  "region": "Hampshire",
  "tags": [
    "27th February",
    "February",
    "2021",
    "Keyhaven",
    "Lymington",
    "Pennington",
    "Lymington Sea Wall",
    "Hampshire"
  ],
  "title": "Lymington Sea Wall",
  "url": "https://photos.philbooth.me/1614413544000-lymington-sea-wall.jpg",
  "url_672": "https://photos.philbooth.me/1614413544000-lymington-sea-wall-672.jpg"
}
