{
  "date": "9th March 2021",
  "location": "Pennington",
  "month": "March",
  "region": "Hampshire",
  "tags": [
    "9th March",
    "March",
    "2021",
    "Garden",
    "Garden work",
    "Pennington",
    "Hampshire"
  ],
  "title": "Garden pond, day 9 of work",
  "url": "https://photos.philbooth.me/1615306296000-pennington-hampshire.jpg",
  "url_672": "https://photos.philbooth.me/1615306296000-pennington-hampshire-672.jpg"
}
