{
  "date": "24th April 2021",
  "location": "Pennington",
  "month": "April",
  "region": "Hampshire",
  "tags": [
    "24th April",
    "April",
    "2021",
    "Mum",
    "Family",
    "Milo",
    "Dogs",
    "Pennington",
    "Hampshire"
  ],
  "title": "Mum and Milo",
  "url": "https://photos.philbooth.me/1619291381000-pennington-hampshire.jpg",
  "url_672": "https://photos.philbooth.me/1619291381000-pennington-hampshire-672.jpg"
}
