{
  "date": "11th June 2021",
  "location": "Pennington",
  "month": "June",
  "region": "Hampshire",
  "tags": [
    "11th June",
    "June",
    "2021",
    "Azalea",
    "Fuschia",
    "Garden",
    "Flowers",
    "Pennington",
    "Hampshire"
  ],
  "title": "Azaleas and fuschias",
  "url": "https://photos.philbooth.me/1623427543000-pennington-hampshire.jpg",
  "url_672": "https://photos.philbooth.me/1623427543000-pennington-hampshire-672.jpg"
}
