{
  "date": "16th July 2021",
  "location": "Pennington",
  "month": "July",
  "region": "Hampshire",
  "tags": [
    "16th July",
    "July",
    "2021",
    "Milo",
    "Dogs",
    "Pennington",
    "Hampshire"
  ],
  "title": "Milo, with grass seed",
  "url": "https://photos.philbooth.me/1626460764000-pennington-hampshire.jpg",
  "url_672": "https://photos.philbooth.me/1626460764000-pennington-hampshire-672.jpg"
}
