{
  "date": "18th August 2021",
  "location": "Cathedine",
  "month": "August",
  "region": "Powys",
  "tags": [
    "18th August",
    "August",
    "2021",
    "Milo",
    "Dogs",
    "Wales",
    "Cathedine",
    "Powys"
  ],
  "title": "Milo discovers apples",
  "url": "https://photos.philbooth.me/1629302669000-cathedine-powys.jpg",
  "url_672": "https://photos.philbooth.me/1629302669000-cathedine-powys-672.jpg"
}
