{
  "date": "20th August 2021",
  "location": "Buckland Hill",
  "month": "August",
  "region": "Powys",
  "tags": [
    "20th August",
    "August",
    "2021",
    "Views",
    "Wales",
    "Buckland Hill",
    "Powys"
  ],
  "title": "View from Buckland Hill",
  "url": "https://photos.philbooth.me/1629439627000-buckland-hill-powys.jpg",
  "url_672": "https://photos.philbooth.me/1629439627000-buckland-hill-powys-672.jpg"
}
