{
  "date": "29th November 2021",
  "location": "Pennington",
  "month": "November",
  "region": "Hampshire",
  "tags": [
    "29th November",
    "November",
    "2021",
    "Milo",
    "Dogs",
    "Pennington",
    "Hampshire"
  ],
  "title": "Milo, sitting nicely in the armchair",
  "url": "https://photos.philbooth.me/1638189659000-pennington-hampshire.jpg",
  "url_672": "https://photos.philbooth.me/1638189659000-pennington-hampshire-672.jpg"
}
