{
  "date": "12th November 2022",
  "location": "Buckland Rings",
  "month": "November",
  "region": "Hampshire",
  "tags": [
    "12th November",
    "November",
    "2022",
    "Views",
    "Lymington",
    "Buckland",
    "Buckland Rings",
    "Milo",
    "Dogs",
    "Hampshire"
  ],
  "title": "Milo on the ramparts at Buckland Rings",
  "url": "https://photos.philbooth.me/1668236959000-lymington-hampshire.jpg",
  "url_672": "https://photos.philbooth.me/1668236959000-lymington-hampshire-672.jpg"
}
