{
  "date": "25th December 2022",
  "location": "Oxford",
  "month": "December",
  "region": "Oxfordshire",
  "tags": [
    "25th December",
    "December",
    "2022",
    "Oxford",
    "South Park",
    "Milo",
    "Dogs",
    "Oxfordshire"
  ],
  "title": "Milo on South Park",
  "url": "https://photos.philbooth.me/1671955509000-oxford-oxfordshire.jpg",
  "url_672": "https://photos.philbooth.me/1671955509000-oxford-oxfordshire-672.jpg"
}
