{
  "date": "28th February 2023",
  "location": "Pennington",
  "month": "February",
  "region": "Hampshire",
  "tags": [
    "28th February",
    "February",
    "2023",
    "Garden",
    "Flowers",
    "Primula",
    "Primrose",
    "Pennington",
    "Hampshire"
  ],
  "title": "Primroses",
  "url": "https://photos.philbooth.me/1677570351000-pennington-hampshire.jpg",
  "url_672": "https://photos.philbooth.me/1677570351000-pennington-hampshire-672.jpg"
}
