{
  "date": "12th March 2023",
  "location": "Buckland Rings",
  "month": "March",
  "region": "Hampshire",
  "tags": [
    "12th March",
    "March",
    "2023",
    "Views",
    "Lymington",
    "Buckland",
    "Buckland Rings",
    "Hampshire"
  ],
  "title": "Buckland Rings",
  "url": "https://photos.philbooth.me/1678604687000-lymington-hampshire.jpg",
  "url_672": "https://photos.philbooth.me/1678604687000-lymington-hampshire-672.jpg"
}
