{
  "date": "19th March 2023",
  "location": "Pennington",
  "month": "March",
  "region": "Hampshire",
  "tags": [
    "19th March",
    "March",
    "2023",
    "Garden",
    "Flowers",
    "Chaenomeles",
    "Quince",
    "Pennington",
    "Hampshire"
  ],
  "title": "Chaenomeles Japonica",
  "url": "https://photos.philbooth.me/1679231040000-pennington-hampshire.jpg",
  "url_672": "https://photos.philbooth.me/1679231040000-pennington-hampshire-672.jpg"
}
