{
  "date": "27th August 2023",
  "location": "Wilverley",
  "month": "August",
  "region": "Hampshire",
  "tags": [
    "27th August",
    "August",
    "2023",
    "Views",
    "Heather",
    "Burley",
    "New Forest",
    "Wilverley",
    "Lymington Ridgeway",
    "Hampshire"
  ],
  "title": "Mile marker on the old Lymington Ridgeway, near Burley",
  "url": "https://photos.philbooth.me/1693116240000-wilverley-hampshire.jpg",
  "url_672": "https://photos.philbooth.me/1693116240000-wilverley-hampshire-672.jpg"
}
