{
  "date": "9th September 2023",
  "location": "Burley",
  "month": "September",
  "region": "Hampshire",
  "tags": [
    "9th September",
    "September",
    "2023",
    "Views",
    "Backley Holmes",
    "New Forest",
    "Burley",
    "Hampshire"
  ],
  "title": "View from Backley Holmes",
  "url": "https://photos.philbooth.me/1694241360000-burley-hampshire.jpg",
  "url_672": "https://photos.philbooth.me/1694241360000-burley-hampshire-672.jpg"
}
