{
  "date": "6th October 2023",
  "location": "Brockenhurst",
  "month": "October",
  "region": "Hampshire",
  "tags": [
    "6th October",
    "October",
    "2023",
    "Views",
    "Trees",
    "New Forest",
    "Brockenhurst",
    "Hinchelsea",
    "Hampshire"
  ],
  "title": "Holly tree with berries on Hinchelsea Moor",
  "url": "https://photos.philbooth.me/1696575840000-brockenhurst-hampshire.jpg",
  "url_672": "https://photos.philbooth.me/1696575840000-brockenhurst-hampshire-672.jpg"
}
