{
  "date": "30th September 2023",
  "location": "Pennington",
  "month": "September",
  "region": "Hampshire",
  "tags": [
    "30th September",
    "September",
    "2023",
    "Flowers",
    "Dahlia",
    "Garden",
    "Pennington",
    "Hampshire"
  ],
  "title": "Dahlia",
  "url": "https://photos.philbooth.me/1696077180000-pennington-hampshire.jpg",
  "url_672": "https://photos.philbooth.me/1696077180000-pennington-hampshire-672.jpg"
}
