{
  "date": "24th October 2023",
  "location": "Buckland Rings",
  "month": "October",
  "region": "Hampshire",
  "tags": [
    "24th October",
    "October",
    "2023",
    "Buckland Rings",
    "Clouds",
    "Cumulonimbus",
    "Incus",
    "Cumulonimbus incus",
    "Buckland",
    "Views",
    "Lymington",
    "Hampshire"
  ],
  "title": "Thunderhead behind Buckland Rings",
  "url": "https://photos.philbooth.me/1698133740000-lymington-hampshire.jpg",
  "url_672": "https://photos.philbooth.me/1698133740000-lymington-hampshire-672.jpg"
}
