{
  "date": "24th March 2024",
  "location": "Pennington",
  "month": "March",
  "region": "Hampshire",
  "tags": [
    "24th March",
    "March",
    "2024",
    "Garden",
    "WoodBlockX",
    "Fruit cage",
    "Garden work",
    "Pennington",
    "Hampshire"
  ],
  "title": "WoodBlockX level 2",
  "url": "https://photos.philbooth.me/1711294620000-pennington-hampshire.jpg",
  "url_672": "https://photos.philbooth.me/1711294620000-pennington-hampshire-672.jpg"
}
