{
  "date": "20th November 2024",
  "location": "Brockenhurst",
  "month": "November",
  "region": "Hampshire",
  "tags": [
    "20th November",
    "November",
    "2024",
    "Brockenhurst",
    "Longslade",
    "Hinchelsea",
    "Milo",
    "Dogs",
    "Hampshire"
  ],
  "title": "Frosty Milo",
  "url": "https://photos.philbooth.me/1732088280000-brockenhurst-hampshire.jpg",
  "url_672": "https://photos.philbooth.me/1732088280000-brockenhurst-hampshire-672.jpg"
}
