{
  "date": "11th December 2024",
  "location": "Pennington",
  "month": "December",
  "region": "Hampshire",
  "tags": [
    "11th December",
    "December",
    "2024",
    "Dogs",
    "Milo",
    "Ralph",
    "Pennington",
    "Hampshire"
  ],
  "title": "Ralph and Milo",
  "url": "https://photos.philbooth.me/1733921820000-pennington-hampshire.jpg",
  "url_672": "https://photos.philbooth.me/1733921820000-pennington-hampshire-672.jpg"
}
